// Jest Snapshot v1, https://goo.gl/fbAQLP

exports[`Default MapSection renders correctly 1`] = `
<div
  className="map"
>
  <div
    className="google-map"
  >
    <t
      bootstrapURLKeys={
        Object {
          "key": "AIzaSyC3TAOhWP8EMC7oL20B1QxThQGoeYeistI",
        }
      }
      debounced={true}
      defaultCenter={
        Object {
          "lat": 30.27,
          "lng": -97.74,
        }
      }
      defaultZoom={10}
      distanceToMouse={[Function]}
      googleMapLoader={[Function]}
      heatmap={Object {}}
      heatmapLibrary={false}
      hoverDistance={30}
      layerTypes={Array []}
      options={[Function]}
      shouldUnregisterMapOnUnmount={true}
      style={
        Object {
          "height": "100%",
          "margin": 0,
          "padding": 0,
          "position": "relative",
          "width": "100%",
        }
      }
      yesIWantToUseGoogleMapApiInternals={false}
    />
  </div>
</div>
`;

exports[`MapSection renders correctly 1`] = `
<div
  className="map"
>
  <div
    className="google-map"
  >
    <t
      bootstrapURLKeys={
        Object {
          "key": "AIzaSyC3TAOhWP8EMC7oL20B1QxThQGoeYeistI",
        }
      }
      debounced={true}
      defaultCenter={
        Object {
          "lat": 30.27,
          "lng": -97.74,
        }
      }
      defaultZoom={10}
      distanceToMouse={[Function]}
      googleMapLoader={[Function]}
      heatmap={Object {}}
      heatmapLibrary={false}
      hoverDistance={30}
      layerTypes={Array []}
      options={[Function]}
      shouldUnregisterMapOnUnmount={true}
      style={
        Object {
          "height": "100%",
          "margin": 0,
          "padding": 0,
          "position": "relative",
          "width": "100%",
        }
      }
      yesIWantToUseGoogleMapApiInternals={false}
    />
  </div>
</div>
`;
