// Jest Snapshot v1, https://goo.gl/fbAQLP

exports[`MyPagination renders correctly 1`] = `
<MemoryRouter
  initialEntries={
    Array [
      "/cities",
    ]
  }
  initialIndex={0}
>
  <Route>
    <Component />
  </Route>
</MemoryRouter>
`;
